{
  "AppSettings": {
    "SiteShortTitle": "SecureVote",
    "SiteTitle": "SecureVote"
  },

  "Data": {
    "DbConnection": {
      "ConnectionString": "Server=(localdb)\\mssqllocaldb;Database=SecureBoiler_Dev;Trusted_Connection=True;MultipleActiveResultSets=true"
    }
  },

  "Logging": {
    "IncludeScopes": true,
    "LogLevel": {
      "Default": "Verbose",
      "System": "Information",
      "Microsoft": "Information"
    }
  },

  "CacheProfileSettings": {
    "CacheProfiles": {
      "BrowserConfigXml": {
        "Duration": 86400,
        "Location": "Any"
      },
      "Error": {
        "Duration": 86400,
        "Location": "Any"
      },
      "ManifestJson": {
        "Duration": 86400,
        "Location": "Any"
      },
      "RobotsText": {
        "Duration": 86400,
        "Location": "Any"
      }
    }
  }
}
